{
    "forge_marker": 1,
    "defaults": {
		"model":"drpmedieval:buckets/water_bucket",
        "textures": {
			"bucket": "drpmedieval:blocks/bucket/acacia_bucket"
        },
        "transform": "forge:default-block"
    },
	"variants": {
		"inventory":[{}],
		"facing":{
			"north":{},
			"east":{"y":90},
			"south":{"y":180},
			"west":{"y":270}
		}
	}
}