{
  "id": "gold_-2,68,312",
  "name": "gold",
  "icon": "waypoint-normal.png",
  "x": -2,
  "y": 68,
  "z": 312,
  "r": 157,
  "g": 28,
  "b": 138,
  "enable": true,
  "type": "Normal",
  "origin": "journeymap",
  "dimensions": [
    0
  ],
  "persistent": true
}