{
  "id": "Рутуть_-187,72,258",
  "name": "Рутуть",
  "icon": "waypoint-normal.png",
  "x": -187,
  "y": 72,
  "z": 258,
  "r": 5,
  "g": 32,
  "b": 100,
  "enable": true,
  "type": "Normal",
  "origin": "journeymap",
  "dimensions": [
    0
  ],
  "persistent": true
}